module gitlab.com/code-challenge-2024/vuln-fixer

go 1.22.1

require (
	github.com/golang/protobuf v1.5.3 // indirect
	github.com/google/go-querystring v1.1.0 // indirect
	github.com/google/uuid v1.6.0 // indirect
	github.com/hashicorp/go-cleanhttp v0.5.2 // indirect
	github.com/hashicorp/go-retryablehttp v0.7.2 // indirect
	github.com/xanzy/go-gitlab v0.100.0 // indirect
	golang.org/x/mod v0.16.0 // indirect
	golang.org/x/net v0.8.0 // indirect
	golang.org/x/oauth2 v0.6.0 // indirect
	golang.org/x/time v0.3.0 // indirect
	google.golang.org/appengine v1.6.7 // indirect
	google.golang.org/protobuf v1.29.1 // indirect
)
